[
{
    "model": "songs.song",
    "pk": 1,
    "fields": {
        "title": "California King Bed",
        "artist": 9,
        "album": "California King Bed (Single)",
        "producer": "",
        "lyrics": "Chest to chest*\r\nNose to nose\r\nPalm to palm\r\nWe were always just that close\r\nWrist wrist\r\nToe to toe\r\nLips that felt just like the inside of a rose\r\nSo how come when I reach out my fingers\r\nIt feels like more than distance between us\r\n\r\n[Chorus:]\r\nIn this California king Bed\r\nWe're ten thousand miles apart\r\nI bet California wishing on these stars for your heart for me\r\nMy California King\r\n\r\nEye to eye\r\nCheek to cheek\r\nSide by side\r\nYou were sleeping next to me (next to me)\r\nArm to arm\r\nDusk to dawn\r\nWith the curtains drawn\r\nAnd a little last nite on these sheets\r\nSo how come when I reach out my fingers\r\nIt seems like more than distance between us\r\n\r\nimage: http://static.urx.io/units/web/urx-unit-loader.gif\r\n\r\n\r\n[Chorus:]\r\nIn this California king Bed\r\nWe're ten thousand miles apart\r\nI bet California wishing on these stars for your heart for me\r\nMy California King\r\n\r\nJust when I felt like giving up on us\r\nYou turned around and gave me one last touch\r\nThat made everything feel better\r\nAnd even then my eyes got wetter\r\nSo confused wanna ask you if you love me\r\nBut I don't wanna seem so weak\r\nMaybe I've been california dreaming\r\n\r\n[Chorus:]\r\nIn this California king Bed\r\nWe're ten thousand miles apart\r\nI bet California wishing on these stars for your heart for me\r\nMy California King\r\n\r\nIn this California king Bed\r\nWe're ten thousand miles apart\r\nI bet California wishing on these stars for your heart for me\r\nMy California King"
    }
},
{
    "model": "songs.song",
    "pk": 2,
    "fields": {
        "title": "Unfaithful",
        "artist": 9,
        "album": "Miscellaneous",
        "producer": "Rihanna",
        "lyrics": "Story Of My Life\r\nSearching For The Right\r\nBut It Keeps Avoiding Me\r\nSorrow In My Soul\r\nCause It Seems That Wrong\r\nReally Loves My Company\r\n\r\nHe's More Than A Man\r\nAnd This Is More Than Love\r\nThe Reason That The Sky Is Blue\r\nBut Clouds Are Rolling In\r\nBecause I'm Gone Again\r\nAnd To Him I Just Can't Be True\r\n\r\nAnd I Know That He Knows I'm Unfaithful\r\nAnd It Kills Him Inside\r\nTo Know That I Am Happy With Some Other Guy\r\nI Can See Him Dying\r\n\r\nI Don't Wanna Do This Anymore\r\nI Don't Wanna Be The Reason Why\r\nEverytime I Walk Out The Door\r\nI See Him Die A Little More Inside\r\nI Don't Wanna Hurt Him Anymore\r\nI Don't Wanna Take Away His Life\r\nI Don't Wanna Be...\r\nA Murderer\r\n\r\n[Royalty:]\r\n\r\nSo Many Nights On The Road Im Alone,\r\nSeenin' Me Dialing Your Phone,\r\nWondering Why Your Not Home,\r\nFinding Out Your Not Alone,\r\nIm Hearing Romours From All These Familiar Faces,\r\nThey Tellin Me Your Cheating,\r\nRevealing Your Secret Places,\r\nShowing Me Locations Of All Your Private Vacations,\r\nAnd Showing Me The Phone Bill Of All Your Convosations,\r\nI Pay For That Cell Phone,\r\nI Sign For Your Car Loan,\r\nI Pay For Your Wardrobe,\r\nAnd Purchased Your All Home,\r\nI Gave You Ma Whole Life ,\r\nI Turned You To My Wife,\r\nNo Money And No Price,\r\nCan Match What I Sacrafice..\r\nAnd You Repayin' Me By Playin' Me,\r\nTellin Me Your Sorry For All The Times You Lied,\r\nBaby Your Unfaithful,\r\nimage: http://static.urx.io/units/web/urx-unit-loader.gif\r\n\r\n\r\nNow Im Truly Grateful,\r\nHere Is My Goodbye...\r\nCan You Feel Me Dieing.\r\n\r\n[Rihanna:]\r\n\r\nI Don't Wanna Do This Anymore\r\nI Don't Wanna Be The Reason Why\r\nEverytime I Walk Out The Door\r\nI See Him Die A Little More Inside\r\nI Don't Wanna Hurt Him Anymore\r\nI Don't Wanna Take Away His Life\r\nI Don't Wanna Be...\r\nA Murderer\r\n\r\nOur Love, His Trust\r\nI Might As Well Take A Gun And Put It To His Head\r\nGet It Over With\r\nI Don't Wanna Do This\r\n\r\n[Royalty:]\r\nBaby Why'd You Do It To Me,\r\nI Never Did It To You,\r\nI Know U Cheating On Me,\r\nI Never Cheated On You,\r\nI Never Told You A Lie,\r\nNever Thought We Would Die,\r\nBaby This Is The End,\r\nBaby This Is Goodbye\r\n\r\n[Rihanna:]\r\n\r\nI Don't Wanna Do This Anymore\r\nI Don't Wanna Be The Reason Why\r\nAnd Everytime I Walk Out The Door\r\nI See Him Die A Little More Inside\r\nAnd I Don't Wanna Hurt Him Anymore\r\nI Don't Wanna Take Away His Life\r\nI Don't Wanna Be...\r\nA Murderer"
    }
},
{
    "model": "songs.song",
    "pk": 3,
    "fields": {
        "title": "Work",
        "artist": 9,
        "album": "Compilation",
        "producer": "",
        "lyrics": "Work, work, work, work, work, work\r\n\r\nHe said me haffi\r\nWork, work, work, work, work, work!\r\nHe see me do mi\r\nDirt, dirt, dirt, dirt, dirt, dirt!\r\nSo me put in\r\nWork, work, work, work, work, work\r\n\r\nWhen you ah guh\r\nLearn, learn, learn, learn, learn\r\n\r\nMeh nuh cyar if him\r\nHurt, hurt, hurt, hurt, hurting\r\n\r\nDry me ah desert him\r\n\r\nNuh time to have you lurking\r\nHim ah go act like he nah like it\r\n\r\nYou know I dealt with you the nicest\r\nNuh body touch me in the righteous\r\nNuh botha text me in a crisis\r\nI believed all of your dreams, adoration\r\nYou took my heart and my keys and my patience\r\nYou took my heart on my sleeve for decoration\r\nYou mistaken my love I brought for you for foundation\r\nAll that I wanted from you was to give me\r\nSomething that I never had\r\nSomething that you've never seen\r\nSomething that you've never been!\r\nMmmmm!\r\nBut I wake up and act like nothing's wrong\r\n\r\nJust get ready for...\r\n\r\nWork, work, work, work, work, work\r\n\r\nHe said me haffi\r\nWork, work, work, work, work, work!\r\nHe see me do mi\r\nDirt, dirt, dirt, dirt, dirt, dirt!\r\n\r\nSo me put in\r\nWork, work, work, work, work, work\r\nNer ner ner ner ner ner!\r\nWhen you a guh ner ner ner ner ner ner!\r\nBefore the tables turn turn turn turn turn turn!\r\n\r\nBeg you something please\r\nBaby don't you leave\r\nDon't leave me stuck here in the streets, uh huh\r\nIf I get another chance to\r\n\r\nI will never, no never neglect you\r\nI mean who am I to hold your past against you?\r\nI just hope that it gets to you\r\nI hope that you see this through\r\nI hope that you see this true\r\nWhat can I say?\r\nimage: http://static.urx.io/units/web/urx-unit-loader.gif\r\n\r\n\r\n\r\nPlease recognize I'm tryin', babe!!!\r\n\r\nI have to\r\n\r\nWork, work, work, work, work, work\r\nHe said me haffi\r\nWork, work, work, work, work, work!\r\n\r\nHe see me do mi\r\n\r\nDirt, dirt, dirt, dirt, dirt, dirt!\r\nSo me put in\r\nWork, work, work, work, work, work\r\nWhen you ah guh\r\nLearn, learn, learn, learn, learn\r\n\r\nMeh nuh cyar if him\r\nHurt, hurt, hurt, hurt, hurting\r\n\r\nYeah, okay\r\nYou need to get done, done, done, done at work, come over\r\nWe just need to slow the motion\r\nDon't give that away to no one\r\nLong distance, I need you\r\nWhen I see potential I just gotta see it through\r\n\r\nIf you had a twin, I would still choose you\r\nI don't wanna rush into it, if it's too soon\r\nBut I know you need to get done, done, done, done\r\nIf you come over\r\nSorry if I'm way less friendly\r\nI got niggas tryna end me, oh\r\nI spilled all my emotions tonight, I'm sorry\r\nRollin', rollin', rollin', rollin', rollin'\r\nHow many more shots until you're rollin'?\r\nWe just need a face to face\r\nYou could pick the time and the place\r\nYou spent some time away\r\nNow you need to forward and give me all the...\r\n\r\nWork, work, work, work, work, work\r\nHe said me haffi\r\nWork, work, work, work, work, work\r\nHe se me do mi\r\nDirt, dirt, dirt, dirt, dirt, dirt!\r\nSo me put in\r\nWork, work, work, work, work, work\r\nWhen you ah guh\r\nLearn, learn, learn, learn, learn\r\nMeh nuh cyar if him\r\nHurt, hurt, hurt, hurt, hurting\r\n\r\nMmmmm, mmmmm\r\nMmmmm, mmmmm\r\nWork, work, work, work, work, work\r\nMmmmm, mmmmm"
    }
},
{
    "model": "songs.song",
    "pk": 4,
    "fields": {
        "title": "Problem",
        "artist": 8,
        "album": "Now That's What I Call Music!",
        "producer": "",
        "lyrics": "Uh huh!\r\nIt's Iggy Iggs!\r\nI got one more problem with you girl\r\nOne less one less!\r\nProblem\r\n\r\nHey baby even though I hate ya!\r\nI wanna love ya\r\nI want you!\r\nAnd even though I can't forgive you\r\nI really want ta\r\nI want you!\r\n\r\nTell me, tell me baby\r\nWhy can't you leave me?\r\nCause even though I shouldn't want it\r\nI gotta have it\r\nI want you!\r\n\r\nHead in the clouds\r\nGot no weight on my shoulders\r\nI should be wiser\r\nAnd realize that I've got\r\n\r\nOne less problem without ya!\r\nI got!\r\nOne less problem without ya!\r\nI got!\r\nOne less problem without ya!\r\nI got one less, one less problem\r\nOne less problem without ya\r\nI got!\r\nOne less problem without ya!\r\nI got!\r\nOne less problem without ya!\r\nI got one less, one less problem\r\n\r\nI know you're never gonna wake up\r\nI gotta give up\r\nBut it's you!\r\nI know I shouldn't ever call back\r\nOr let you come back\r\nBut it's you!\r\nEvery time you touch me\r\nAnd say you love me\r\nI get a little bit breathless\r\nI shouldn't want it\r\nBut it's you!\r\n\r\nHead in the clouds\r\nGot no weight on my shoulders\r\nI should be wiser\r\nAnd realize that I've got\r\n\r\nOne less problem without ya!\r\nI got!\r\nOne less problem without ya!\r\nI got!\r\nOne less problem without ya!\r\nI got one less, one less problem\r\nOne less problem without ya\r\nI got!\r\nOne less problem without ya!\r\nimage: http://static.urx.io/units/web/urx-unit-loader.gif\r\n\r\n\r\nI got!\r\nOne less problem without ya!\r\nI got one less, one less problem\r\n\r\nIt's Iggy Iggs!\r\nUh!\r\nWhat you got?\r\nSmart money bettin'\r\nI'll be better off without you\r\nIn no time\r\nI'll be forgettin' all about you\r\nYou saying that you know\r\nBut I really really doubt you\r\nUnderstand my life is easy\r\nWhen I ain't around you\r\nIggy Iggy\r\nTo biggie to be here stressin'\r\nI'm thinkin' I love the thought of you\r\nMore than I love your presence\r\nAnd the best thing now\r\nIs probably for you to exit\r\nI let you go\r\nLet you back\r\nI finally learned my lesson!\r\nNo half-stepping\r\nEither you want it or you just playin'\r\nI'm listening to you knowin'\r\nI can't believe what you're sayin'\r\nThere's a million you's baby boo\r\nSo don't be dumb\r\nI got 99 problems\r\nBut you won't be one\r\nLike what!\r\n\r\nOne less, one less problem\r\nOne less, one less problem\r\n\r\nHead in the clouds\r\nGot no weight on my shoulders\r\nI should be wiser\r\nAnd realize that I've got (I've got)\r\n\r\nOne less problem without ya!\r\nI got!\r\nOne less problem without ya!\r\nI got!\r\nOne less problem without ya!\r\nI got one less, one less problem\r\nOne less problem without ya\r\nI got!\r\nOne less problem without ya!\r\nI got!\r\nOne less problem without ya!\r\nI got one less, one less problem\r\nOne less problem without ya\r\nI got!\r\nOne less problem without ya!\r\nI got!\r\nOne less problem without ya!\r\nI got one less, one less problem"
    }
},
{
    "model": "songs.song",
    "pk": 5,
    "fields": {
        "title": "Love Me Harder",
        "artist": 8,
        "album": "My Everything",
        "producer": "",
        "lyrics": "Tell me something I need to know\r\nThen take my breath and never let it go\r\nIf you just let me invade your space\r\nI'll take the pleasure, take it with the pain\r\n\r\nAnd if in the moment I bite my lip\r\nBaby, in that moment you'll know this is\r\nSomething bigger than us and beyond bliss\r\nGive me a reason to believe it\r\n\r\n'Cause if you want to keep me, you gotta, gotta, gotta, gotta, got to love me harder\r\nAnd if you really need me, you gotta, gotta, gotta, gotta, got to love me harder\r\nBaby, love me harder\r\nLove me, love me, love me\r\nHarder, harder, harder\r\n\r\nI know your motives and you know mine\r\nThe ones that love me, I tend to leave behind\r\nIf you know about me and choose to stay\r\nThen take this pleasure and take it with the pain\r\n\r\nAnd if in the moment you bite your lip\r\nWhen I get you moaning you know it's real\r\nCan you feel the pressure between your hips?\r\nI'll make it feel like the first time\r\n\r\nimage: http://static.urx.io/units/web/urx-unit-loader.gif\r\n\r\n\r\n'Cause if you want to keep me, you gotta, gotta, gotta, gotta, got to love me harder (Imma love you harder)\r\nAnd if you really need me, you gotta, gotta, gotta, gotta, got to love me harder (love me harder)\r\nLove me, love me, love me\r\nHader, hader, hader\r\nLove me, love me, love me\r\nHarder, harder, harder\r\n\r\nSo what do I do if I can't figure it out?\r\nYou got to try, try, try again, yeah.\r\nSo what do I do if I can't figure it out?\r\nI'm gonna leave, leave, leave again\r\n\r\n'Cause if you want to keep me, you gotta, gotta, gotta, gotta, got to love me harder (Imma love you, love you, love you)\r\nAnd if you really need me, you gotta, gotta, gotta, gotta, got to love me harder (love me, love me, baby)\r\n'Cause if you want to keep me, you gotta, gotta, gotta, gotta, got to love me harder (love me harder)\r\nAnd if you really need me, you gotta, gotta, gotta, gotta, got to love me harder (Imma love you harder)\r\nLove me, love me, love me\r\nHarder, harder, harder\r\n(love me, love me, baby)\r\nLove me, love me, love me\r\n(just a little bit, harder, harder, baby)\r\nHarder, harder, harder"
    }
},
{
    "model": "songs.song",
    "pk": 6,
    "fields": {
        "title": "Focus",
        "artist": 8,
        "album": "Focus",
        "producer": "",
        "lyrics": "I know what I came to do\r\nAnd that ain't gonna change\r\nSo go ahead and talk your talk\r\nCause I won't take the bait\r\nI'm over here doing what I like\r\nI'm over here working day and night\r\nAnd if my real ain't real enough\r\nI'm sorry for you, bae\r\n\r\nLet's find a light inside our universe now\r\nWhere ain't nobody keep on holding us down\r\nJust come and get it, let them say what they say\r\nCause I'm about to put them all away\r\n\r\nFocus on me, f-f-focus on me\r\nFocus on me, f-f-focus on me\r\nFocus on me (Focus), f-f-focus on me (Focus on me)\r\nFocus on me (Focus), f-f-focus on me (Focus on me)\r\n\r\nI can tell you're curious\r\nIt's written on your lips\r\nAin't no need to hold it back\r\nGo 'head and talk your shit\r\nI know you're hoping that I'll react\r\nI know you're hoping I'm looking back\r\nBut if my real ain't real enough\r\nThen I don't know what is\r\n\r\nimage: http://static.urx.io/units/web/urx-unit-loader.gif\r\n\r\n\r\nLet's find a light inside our universe now\r\nWhere ain't nobody keep on holding us down\r\nJust come and get it, let them say what they say\r\nCause I'm about to put them all away\r\n\r\nFocus on me, f-f-focus on me\r\nFocus on me, f-f-focus on me\r\nFocus on me (Focus), f-f-focus on me (Focus on me)\r\nFocus on me (Focus), f-f-focus on me (Focus on me)\r\n\r\n1, 2, 3, c'mon girls\r\nYou're gonna like it\r\nCome on, now, now\r\n\r\nLet's find a light inside our universe now\r\nWhere ain't nobody keep on holding us down\r\nJust come and get it, let them say what they say\r\nCause I'm about to put them all away\r\n\r\nFocus on me, f-f-focus on me\r\nFocus on me, f-f-focus on me\r\nFocus on me (Focus), f-f-focus on me (Focus on me)\r\nFocus on me (Focus), f-f-focus on me (Focus on me)\r\nFocus on me, f-f-focus on me\r\nFocus on me, f-f-focus on me\r\nFocus on me (Focus), f-f-focus on me (Focus on me)\r\nFocus on me (Focus), f-f-focus on me (Focus on me)"
    }
},
{
    "model": "songs.song",
    "pk": 7,
    "fields": {
        "title": "I Can't Feel My Face",
        "artist": 7,
        "album": "I Can't Feel My Face",
        "producer": "",
        "lyrics": "And I know she'll be the death of me, at least we'll both be numb\r\nAnd she'll always get the best of me, the worst is yet to come\r\nBut at least we'll both be beautiful and stay forever young\r\nThis I know, yeah, this I know\r\n\r\nShe told me, \"Don't worry about it\"\r\nShe told me, \"Don't worry no more\"\r\nWe both know we can't go without it\r\nShe told me you'll never be in love, oh, oh, woo\r\n\r\nI can't feel my face when I'm with you\r\nBut I love it, but I love it, oh\r\nI can't feel my face when I'm with you\r\nBut I love it, but I love it, oh\r\n\r\nAnd I know she'll be the death of me, at least we'll both be numb\r\nAnd she'll always get the best of me, the worst is yet to come\r\nAll the misery was necessary when we're deep in love\r\nThis I know, girl, I know\r\n\r\nShe told me, \"Don't worry about it\"\r\nShe told me, \"Don't worry no more\"\r\nWe both know we can't go without it\r\nShe told me you'll never be in love, oh, oh, woo\r\nimage: http://static.urx.io/units/web/urx-unit-loader.gif\r\n\r\n\r\n\r\nI can't feel my face when I'm with you\r\nBut I love it, but I love it, oh\r\nI can't feel my face when I'm with you\r\nBut I love it, but I love it, oh\r\n\r\nI can't feel my face when I'm with you\r\nBut I love it, but I love it, oh\r\nI can't feel my face when I'm with you\r\nBut I love it, but I love it, oh\r\n\r\nShe told me, \"Don't worry about it\"\r\nShe told me, \"Don't worry no more\"\r\nWe both know we can't go without it\r\nShe told me you'll never be in love, oh, oh, woo\r\n\r\nI can't feel my face when I'm with you\r\nBut I love it, but I love it, oh\r\nI can't feel my face when I'm with you\r\nBut I love it, but I love it, oh"
    }
},
{
    "model": "songs.song",
    "pk": 8,
    "fields": {
        "title": "Treasure",
        "artist": 6,
        "album": "Treasure",
        "producer": "",
        "lyrics": "Give me all, give me all, give me all your attention baby\r\nI got tell you a little something about yourself\r\nYou're wonderful, flawless, oh, you're a sexy lady\r\nBut you walk around here like you wanna be someone else\r\n\r\nOh woah, I know that you don't know it, but you're fine, so fine (fine, so fine)\r\nOh woah, oh girl I'm gonna show you when you're mine, oh mine (mine, oh mine)\r\n\r\nTreasure, that means what you are\r\nHoney you're my golden star\r\nI know you can make me wish come true\r\nIf you let me treasure you\r\nIf you let me treasure oh, oh, oh\r\n\r\nPretty girl, pretty girl, pretty girl you should be smiling\r\nA girl like you should never live so blue\r\nYou're everything I see in my dreams\r\nI wouldn't say that to you if it wasn't true\r\n\r\nOh woah, I know that you don't know it, but you're fine, so fine (fine, so fine)\r\nimage: http://static.urx.io/units/web/urx-unit-loader.gif\r\n\r\n\r\nOh woah, oh girl I'm gonna show you when you're mine, oh mine (mine, oh mine)\r\n\r\nTreasure, that means what you are\r\nHoney you're my golden star\r\nI know you can make me wish come true\r\nIf you let me treasure you\r\nIf you let me treasure oh, oh, oh\r\n\r\nYou're my treasure, you're my treasure, you're my treasure, yeah, you, you, you, you're\r\nYou're my treasure, you're my treasure, you're my treasure, yeah, you, you, you, you're\r\n\r\nTreasure, that means what you are\r\nHoney you're my golden star\r\nI know you can make me wish come true\r\nIf you let me treasure you\r\nIf you let me treasure oh, oh, oh"
    }
},
{
    "model": "songs.song",
    "pk": 9,
    "fields": {
        "title": "24K Magic",
        "artist": 6,
        "album": "24K Magic",
        "producer": "Shampoo Press & Curl & The Stereotypes",
        "lyrics": "[Intro]\r\nTonight\r\nI just want to take you higher\r\nThrow your hands up in the sky\r\nLet's set this party off right\r\n\r\n[Chorus]\r\nPlayers, put yo' pinky rings up to the moon\r\nGirls, what y'all trying to do?\r\n24 karat magic in the air\r\nHead to toe so player\r\nUh, look out!\r\n[Verse 1]\r\nPop pop, it's show time (Show time)\r\nShow time (Show time)\r\nGuess who's back again?\r\nOh they don't know? (Go on tell 'em)\r\nOh they don't know? (Go on tell 'em)\r\nI bet they know soon as we walk in (Showin' up)\r\nWearing Cuban links (ya)\r\nDesigner minks (ya)\r\nInglewood's finest shoes (Whoop, whoop)\r\nDon't look too hard\r\nMight hurt ya'self\r\nKnown to give the color red the blues\r\n\r\n[Pre-Chorus]\r\nOoh shit, I'm a dangerous man with some money in my pocket\r\n(Keep up)\r\nSo many pretty girls around me and they waking up the rocket\r\n(Keep up)\r\nWhy you mad? Fix ya face\r\nAin't my fault y'all be jocking\r\n(Keep up)\r\n\r\n[Chorus]\r\nPlayers only, come on\r\nPut your pinky rings up to the moon\r\nGirls, what y'all trying to do?\r\n24 karat magic in the air\r\nHead to toe so player\r\nUh, look out!\r\n\r\n[Verse 2]\r\nSecond verse for the hustlas (hustlas)\r\nGangstas (gangstas)\r\nBad bitches and ya ugly ass friends (Haha)\r\nCan I preach? (Uh oh) Can I preach? (Uh oh)\r\nI gotta show 'em how a pimp get it in\r\nFirst, take your sip (sip), do your dip (dip)\r\nSpend your money like money ain't shit (Whoop, whoop)\r\nWe too fresh\r\nGot to blame it on Jesus\r\nimage: http://static.urx.io/units/web/urx-unit-loader.gif\r\n\r\n\r\nHashtag blessed\r\nThey ain't ready for me\r\n\r\n[Pre-Chorus]\r\nI'm a dangerous man with some money in my pocket\r\n(Keep up)\r\nSo many pretty girls around me and they waking up the rocket\r\n(Keep up)\r\nWhy you mad? Fix ya face\r\nAin't my fault y'all be jocking\r\n(Keep up)\r\n\r\n[Chorus]\r\nPlayers only, come on\r\nPut your pinky rings up to the moon\r\nHey girls\r\nWhat y'all trying to do?\r\n24 karat magic in the air\r\nHead to toe so player\r\nUh, look out!\r\n\r\n[Bridge]\r\n(Wooh)\r\nEverywhere I go they be like\r\nOoh, so player ooh\r\nEverywhere I go they be like\r\nOoh, so player ooh\r\nEverywhere I go they be like\r\nOoh, so player ooh\r\nNow, now, now\r\nWatch me break it down like (Uh)\r\n24 karat, 24 karat magic\r\nWhat's that sound?\r\n24 karat, 24 karat magic\r\nCome on now\r\n24 karat, 24 karat magic\r\nDon't fight the feeling\r\nInvite the feeling\r\n\r\n[Chorus]\r\nJust put your pinky rings up to the moon\r\nGirls, what y'all trying to do?\r\n24 karat magic in the air\r\nHead to toe so player\r\nPut your pinky rings up to the moon\r\nGirls, what y'all trying to do? (Do)\r\n24 karat magic in the air\r\nHead to toe so player\r\n(24 karat)\r\nUh, look out\r\n\r\n[Outro]\r\n(24 karat magic, magic, magic)"
    }
},
{
    "model": "songs.song",
    "pk": 10,
    "fields": {
        "title": "Telephone",
        "artist": 5,
        "album": "The Fame Monster",
        "producer": "",
        "lyrics": "Hello, hello, baby, you called? I can't hear a thing\r\nI have got no service, in the club, you see, you see\r\nWha-Wha-What did you say, huh? You're breaking up on me\r\nSorry, I cannot hear you, I'm kinda busy\r\n\r\nK-kinda busy\r\nK-kinda busy\r\nSorry, I cannot hear you\r\nI'm kinda busy\r\n\r\nJust a second, its my favorite song they gonna play\r\nAnd I cannot text you with a drink in my hand, eh?\r\nYou should've made some plans with me, you knew that I was free\r\nAnd now you won't stop calling me, I'm kinda busy\r\n\r\nStop callin', stop callin', I don' wanna think anymore\r\nI left my head and my heart on the dance floor\r\nStop callin', stop callin', I don't wanna talk anymore\r\nI left my head and my heart on the dance floor\r\n\r\nStop telephonin' me\r\n(Stop telephonin' me)\r\nI'm busy\r\n(I'm busy)\r\nStop telephonin' me\r\n(Stop telephonin' me)\r\n\r\nCall all you want, but theres no one home\r\nAnd you're not gonna reach my telephone\r\n'Cause I'm out in the club and I'm sippin' that bubb'\r\nAnd you're not gonna reach my telephone\r\n\r\nCall all you want, but theres no one home\r\nAnd you're not gonna reach my telephone\r\n'Cause I'm out in the club and I'm sippin' that bubb'\r\nAnd you're not gonna reach my telephone\r\n\r\nBoy, the way you blowin' up my phone\r\nWon't make me leave no faster\r\nPut my coat on faster\r\nLeave my girls no faster\r\n\r\nI should've left my phone at home\r\n'Cause this is a disaster\r\nCallin' like a collector\r\nSorry, I cannot answer\r\n\r\nNot that I don't like you, I'm just at a party\r\nAnd I am sick and tired of my phone r-ringing\r\nSometimes I feel like I live in Grand Central Station\r\nimage: http://static.urx.io/units/web/urx-unit-loader.gif\r\n\r\n\r\nTonight I'm not takin' no calls, 'cause I'll be dancin'\r\n\r\n'Cause I'll be dancin'\r\n'Cause I'll be dancin'\r\nTonight I'm not takin' no calls\r\n'Cause I'll be dancin'\r\n\r\nStop callin', stop callin', I don' wanna think anymore\r\nI left my head and my heart on the dance floor\r\nStop callin', stop callin', I don't wanna talk anymore\r\nI left my head and my heart on the dance floor\r\n\r\nStop callin', stop callin', I don' wanna think anymore\r\nI left my head and my heart on the dance floor\r\nStop callin', stop callin', I don't wanna talk anymore\r\nI left my head and my heart on the dance floor\r\n\r\nStop telephonin' me\r\n(I'm busy!)\r\nI'm busy!\r\n(Stop telephonin' me)\r\nStop telephonin' me!\r\n(I'm busy!)\r\n\r\nCall all you want, but theres no one home\r\nAnd you're not gonna reach my telephone\r\n'Cause I'm out in the club and I'm sippin' that bubb'\r\nAnd you're not gonna reach my telephone\r\n\r\nCall all you want, but theres no one home\r\nAnd you're not gonna reach my telephone\r\n'Cause I'm out in the club and I'm sippin' that bubb'\r\nAnd you're not gonna reach my telephone\r\n\r\nMy telephone, m-m-my telephone\r\n'Cause I'm out in the club\r\nAnd I'm sippin' that bubb'\r\nAnd you're not gonna reach my telephone\r\n\r\nMy telephone, m-m-my telephone\r\n'Cause I'm out in the club\r\nAnd I'm sippin' that bubb'\r\nAnd you're not gonna reach my telephone\r\n\r\nWe're sorry the number you have reached is not in service at this time\r\nPlease check the number, or try your call again"
    }
},
{
    "model": "songs.song",
    "pk": 11,
    "fields": {
        "title": "Just Dance",
        "artist": 5,
        "album": "The Fame",
        "producer": "",
        "lyrics": "RedOne, Konvict\r\nGaGa, oh-oh, eh\r\n\r\nI've had a little bit too much, much\r\nAll of the people start to rush, start to rush by\r\nHow does he twist the dance? Can't find a drink, oh man\r\nWhere are my keys? I lost my phone, phone\r\n\r\nWhat's going on on the floor?\r\nI love this record baby but I can't see straight anymore\r\nKeep it cool, what's the name of this club?\r\nI can't remember but it's alright, a-alright\r\n\r\nJust dance, gonna be okay, da da doo-doo-mmm\r\nJust dance, spin that record babe, da da doo-doo-mmm\r\nJust dance, gonna be okay, d-d-d-dance\r\nDance, dance, just, j-j-just dance\r\n\r\nWish I could shut my playboy mouth, oh oh oh-oh\r\nHow'd I turn my shirt inside out? Inside outright\r\nControl your poison babe, roses have thorns they say\r\nAnd we're all getting hosed tonight, oh oh oh-oh\r\n\r\nWhat's going on on the floor?\r\nI love this record baby but I can't see straight anymore\r\nKeep it cool, what's the name of this club?\r\nI can't remember but it's alright, a-alright\r\n\r\nJust dance, gonna be okay, da da doo-doo-mmm\r\nJust dance, spin that record babe, da da doo-doo-mmm\r\nJust dance, gonna be okay, d-d-d-dance\r\nDance, dance, just, j-j-just\r\n\r\nWhen I come through on the dance floor checkin' out that catalog\r\nCan't believe my eyes, so many women without a flaw\r\nAnd I ain't gon' give it up, steady tryin' to pick it up like a car\r\nI'ma hit it, I'ma hit it and flex and do it until tomorr' yeah\r\n\r\nShawty I can see that you got so much energy\r\nThe way you're twirlin' up them hips 'round and 'round\r\nAnd now there's no reason at all why you can't leave here with me\r\nimage: http://static.urx.io/units/web/urx-unit-loader.gif\r\n\r\n\r\nIn the meantime stay and let me watch you break it down\r\n\r\nAnd dance, gonna be okay, da da doo-doo-mmm\r\nJust dance, spin that record babe, da da doo-doo-mmm\r\n\r\nJust dance, gonna be okay, da da doo-doo-mmm\r\nJust dance, spin that record babe, da da doo-doo-mmm\r\nJust dance, gonna be okay, d-d-d-dance\r\nDance, dance, just, j-j-just dance\r\n\r\nWoo! Let's go!\r\n\r\nHalf psychotic, sick, hypnotic\r\nGot my blueprint, it's symphonic\r\nHalf psychotic, sick, hypnotic\r\nGot my blueprint electronic\r\n\r\nHalf psychotic, sick, hypnotic\r\nGot my blueprint, it's symphonic\r\nHalf psychotic, sick, hypnotic\r\nGot my blueprint electronic\r\n\r\nGo! Use your muscle, carve it out, work it, hustle\r\nI got it, just stay close enough to get it\r\nDon't slow! Drive it, clean it, lights out, bleed it\r\nSpend the lasto\r\n(I got it)\r\nIn your pocko\r\n(I got it)\r\n\r\nJust dance, gonna be okay, da da doo-doo-mmm\r\nJust dance, spin that record babe, da da doo-doo-mmm\r\n\r\nJust dance, gonna be okay, da da doo-doo-mmm\r\nJust dance, spin that record babe, da da doo-doo-mmm\r\nJust dance, gonna be okay, d-d-d-dance\r\nDance, dance, just, j-j-just dance"
    }
},
{
    "model": "songs.song",
    "pk": 12,
    "fields": {
        "title": "Perfect Illusion",
        "artist": 5,
        "album": "Perfect Illusion",
        "producer": "",
        "lyrics": "Tryin' to get control\r\nPressure's takin' its toll\r\nStuck in the middle zone\r\nI just want you alone\r\nMy guessing game is strong\r\nWay too real to be wrong\r\nCaught up in your show\r\nYeah, at least now I know\r\n\r\nIt wasn't love, it wasn't love\r\nIt was a perfect illusion\r\n(Perfect illusion)\r\nMistaken for love, it wasn't love\r\nIt was a perfect illusion\r\n(Perfect illusion)\r\nYou were a perfect illusion\r\n\r\nI don't need eyes to see\r\nI felt you touchin' me\r\nHigh like amphetamine\r\nMaybe you're just a dream\r\nThat's what it means to crush\r\nNow that I'm wakin' up\r\nI still feel the blow\r\nBut at least now I know\r\n\r\nIt wasn't love, it wasn't love\r\nIt was a perfect illusion\r\n(Perfect illusion)\r\nMistaken for love, it wasn't love\r\nIt was a perfect illusion\r\n(Perfect illusion)\r\n\r\nWhere are you?\r\nCause I can't see you\r\nIt was a perfect illusion\r\nBut I feel you watching me\r\nDilated, falling free\r\nIn a modern ecstasy\r\nWhere are you?\r\nCause I can't see you\r\nIt was a perfect illusion\r\nBut I feel you watching me\r\nBut I feel you watching me\r\nimage: http://static.urx.io/units/web/urx-unit-loader.gif\r\n\r\n\r\nIllusion\r\nBut I feel you watching me\r\nMistaken for love\r\nWhere were you\r\nCause I can't see\r\nBut I feel you watching me\r\nMistaken for love\r\nDilated, falling free\r\nIn a modern ecstasy\r\nMistaken for love\r\nIn a modern ecstasy\r\nIn a modern ecstasy\r\n\r\nI'm over the show\r\nYeah at least now I know\r\n\r\nIt wasn't love, it wasn't love\r\nIt was a perfect illusion\r\n(Perfect illusion)\r\nMistaken for love, it wasn't love\r\nIt was a perfect illusion\r\n(Perfect illusion)\r\n\r\nYou were a perfect illusion\r\nIt was a perfect illusion\r\n\r\nIt was a perfect illusion\r\nSomewhere in all the confusion\r\nIt was a perfect illusion, illusion\r\nillusion\r\n\r\nWhere were you 'cause I can't see it\r\nIt was perfect illusion\r\nBut I feel you watchin' me, baby\r\nSomewhere in all the confusion\r\nDilated, fallin' free\r\nYou were so perfect\r\nIn a modern ecstasy\r\nYou were a\r\nYou were a perfect illusion"
    }
},
{
    "model": "songs.song",
    "pk": 13,
    "fields": {
        "title": "ET",
        "artist": 4,
        "album": "ET (Single)",
        "producer": "",
        "lyrics": "You're so hypnotizing\r\nCould you be the devil? Could you be an angel?\r\nYour touch magnetizing\r\nFeels like I am floating, leaves my body glowing\r\n\r\nThey say be afraid\r\nYou're not like the others, futuristic lover\r\nDifferent DNA\r\nThey don't understand you\r\n\r\nYou're from a whole other world\r\nA different dimension\r\nYou open my eyes\r\nAnd I'm ready to go, lead me into the light\r\n\r\nKiss me, ki-ki-kiss me\r\nInfect me with your love and\r\nFill me with your poison\r\n\r\nTake me, ta-ta-take me\r\nWanna be a victim\r\nReady for abduction\r\n\r\nBoy, you're an alien\r\nYour touch so foreign\r\nIt's supernatural\r\nExtraterrestrial\r\n\r\nYou're so supersonic\r\nWanna feel your powers, stun me with your lasers\r\nYour kiss is cosmic\r\nEvery move is magic\r\n\r\nYou're from a whole other world\r\nA different dimension\r\n\r\nYou open my eyes\r\nAnd I'm ready to go, lead me into the light\r\n\r\nKiss me, ki-ki-kiss me\r\nInfect me with your love and\r\nimage: http://static.urx.io/units/web/urx-unit-loader.gif\r\n\r\n\r\nFill me with your poison\r\n\r\nTake me, ta-ta-take me\r\nWanna be a victim\r\nReady for abduction\r\n\r\nBoy, you're an alien\r\nYour touch so foreign\r\nIt's supernatural\r\nExtraterrestrial\r\n\r\nThis is transcendental\r\nOn another level\r\nBoy, you're my lucky star\r\n\r\nI wanna walk on your wavelength\r\nAnd be there when you vibrate\r\nFor you I'll risk it all\r\n\r\nKiss me, ki-ki-kiss me\r\nInfect me with your love and\r\nFill me with your poison\r\n\r\nTake me, ta-ta-take me\r\nWanna be a victim\r\nReady for abduction\r\n\r\nBoy, you're an alien\r\nYour touch so foreign\r\nIt's supernatural\r\nExtraterrestrial, extraterrestrial, extraterrestrial\r\n\r\nBoy, you're an alien\r\nYour touch so foreign\r\nIt's supernatural\r\nExtraterrestrial"
    }
},
{
    "model": "songs.song",
    "pk": 14,
    "fields": {
        "title": "Firework",
        "artist": 4,
        "album": "#StandTall4Women",
        "producer": "",
        "lyrics": "Do you ever feel like a plastic bag?\r\nDrifting through the wind\r\nWanting to start again\r\nDo you ever feel, feel so paper-thin?\r\nLike a house of cards\r\nOne blow from caving in\r\n\r\nDo you ever feel already buried deep?\r\nSix feet under screams, but no one seems to hear a thing\r\nDo you know that there's still a chance for you?\r\n'Cause there's a spark in you\r\n\r\nYou just gotta ignite the light\r\nAnd let it shine\r\nJust own the night\r\nLike the Fourth of July\r\n\r\n'Cause, baby, you're a firework\r\nCome on, show 'em what you're worth\r\nMake 'em go, \"ah, ah, ah\"\r\nAs you shoot across the sky\r\n\r\nBaby, you're a firework\r\nCome on, let your colors burst\r\nMake 'em go, \"ah, ah, ah\"\r\nYou're gonna leave them all in awe, awe, awe\r\n\r\nYou don't have to feel like a wasted space\r\nYou're original, cannot be replaced\r\nIf you only knew what the future holds\r\nAfter a hurricane comes a rainbow\r\n\r\nMaybe a reason why all the doors are closed\r\nSo you could open one that leads you to the perfect road\r\nLike a lightning bolt, your heart will glow\r\nAnd when it's time, you'll know\r\n\r\nimage: http://static.urx.io/units/web/urx-unit-loader.gif\r\n\r\n\r\nYou just gotta ignite the light\r\nAnd let it shine\r\nJust own the night\r\nLike the Fourth of July\r\n\r\n'Cause, baby, you're a firework\r\nCome on, show 'em what you're worth\r\nMake 'em go, \"ah, ah, ah\"\r\nAs you shoot across the sky\r\n\r\nBaby, you're a firework\r\nCome on, let your colors burst\r\nMake 'em go, \"ah, ah, ah\"\r\nYou're gonna leave them all in awe, awe, awe\r\n\r\nBoom, boom, boom\r\nEven brighter than the moon, moon, moon\r\nIt's always been inside of you, you, you\r\nAnd now it's time to let it through-ough-ough\r\n\r\n'Cause, baby, you're a firework\r\nCome on, show 'em what you're worth\r\nMake 'em go, \"ah, ah, ah\"\r\nAs you shoot across the sky\r\n\r\nBaby, you're a firework\r\nCome on, let your colors burst\r\nMake 'em go, \"ah, ah, ah\"\r\nYou're gonna leave them all in awe, awe, awe\r\n\r\nBoom, boom, boom\r\nEven brighter than the moon, moon, moon\r\nBoom, boom, boom\r\nEven brighter than the moon, moon, moon"
    }
},
{
    "model": "songs.song",
    "pk": 15,
    "fields": {
        "title": "Hello",
        "artist": 3,
        "album": "25",
        "producer": "",
        "lyrics": "Hello, it's me\r\nI was wondering if after all these years you'd like to meet\r\nTo go over everything\r\nThey say that time's supposed to heal ya\r\nBut I ain't done much healing\r\n\r\nHello, can you hear me?\r\nI'm in California dreaming about who we used to be\r\nWhen we were younger and free\r\nI've forgotten how it felt before the world fell at our feet\r\n\r\nThere's such a difference between us\r\nAnd a million miles\r\n\r\nHello from the other side\r\nI must've called a thousand times\r\nTo tell you I'm sorry for everything that I've done\r\nBut when I call, you never seem to be home\r\n\r\nHello from the outside\r\nAt least I can say that I've tried\r\nTo tell you I'm sorry for breaking your heart\r\nBut it don't matter, it clearly doesn't tear you apart anymore\r\n\r\nHello, how are you?\r\nIt's so typical of me to talk about myself, I'm sorry\r\nI hope that you're well\r\nDid you ever make it out of that town where nothing ever happened?\r\n\r\nimage: http://static.urx.io/units/web/urx-unit-loader.gif\r\n\r\n\r\nIt's no secret that the both of us are running out of time\r\n\r\nSo hello from the other side\r\nI must've called a thousand times\r\nTo tell you I'm sorry for everything that I've done\r\nBut when I call, you never seem to be home\r\n\r\nHello from the outside\r\nAt least I can say that I've tried\r\nTo tell you I'm sorry for breaking your heart\r\nBut it don't matter, it clearly doesn't tear you apart anymore\r\n\r\nOooooh, anymore\r\nOooooh, anymore\r\nOooooh, anymore\r\nAnymore\r\n\r\nHello from the other side\r\nI must've called a thousand times\r\nTo tell you I'm sorry for everything that I've done\r\nBut when I call, you never seem to be home\r\n\r\nHello from the outside\r\nAt least I can say that I've tried\r\nTo tell you I'm sorry for breaking your heart\r\nBut it don't matter, it clearly doesn't tear you apart anymore"
    }
},
{
    "model": "songs.song",
    "pk": 16,
    "fields": {
        "title": "All I Ask",
        "artist": 3,
        "album": "25",
        "producer": "Adele, Brody Brown, Bruno Mars & Philip Lawrence",
        "lyrics": "I will leave my heart at the door\r\nI won't say a word\r\nThey've all been said before\r\nSo why don't we just play pretend\r\nLike we're not scared of what's coming next\r\nOr scared of having nothing left\r\n\r\n[Pre-Chorus]\r\nNow, don't get me wrong\r\nI know there is no tomorrow\r\nAll I ask is\r\n\r\n[Chorus]\r\nIf this is my last night with you\r\nHold me like I'm more than just a friend\r\nGive me a memory I can use\r\nTake me by the hand while we do what lovers do\r\nIt matters how this ends\r\nCause what if I never love again?\r\n\r\n[Verse 2]\r\nI don't need your honesty\r\nIt's already in your eyes and I'm sure my eyes, they speak for me\r\nNo one knows me like you do\r\nAnd since you're the only one that matters, tell me who do I run to?\r\n\r\nimage: http://static.urx.io/units/web/urx-unit-loader.gif\r\n\r\n\r\n[Pre-Chorus]\r\nNow, don't get me wrong\r\nI know there is no tomorrow\r\nAll I ask is\r\n\r\n[Chorus]\r\nIf this is my last night with you\r\nHold me like I'm more than just a friend\r\nGive me a memory I can use\r\nTake me by the hand while we do what lovers do\r\nIt matters how this ends\r\nCause what if I never love again?\r\n\r\n[Bridge]\r\nLet this be our lesson in love\r\nLet this be the way we remember us\r\nI don't wanna be cruel or unjust\r\nAnd I ain't asking for forgiveness\r\nAll I ask is...\r\n\r\n[Chorus]\r\nIf this is my last night with you\r\nHold me like I'm more than just a friend\r\nGive me a memory I can use\r\nTake me by the hand while we do what lovers do\r\nIt matters how this ends\r\nCause what if I never love again?"
    }
},
{
    "model": "songs.song",
    "pk": 17,
    "fields": {
        "title": "Shape of You",
        "artist": 1,
        "album": "Divide",
        "producer": "Steve Mac",
        "lyrics": "The club isn't the best place to find a lover\r\nSo the bar is where I go\r\nMe and my friends at the table doing shots\r\nDrinking faster and then we talk slow\r\nCome over and start up a conversation with just me\r\nAnd trust me I'll give it a chance now\r\nTake my hand, stop\r\nPut Van The Man on the jukebox\r\nAnd then we start to dance\r\nAnd now I'm singing like\r\n\r\n[Pre-Chorus]\r\nGirl, you know I want your love\r\nYour love was handmade for somebody like me\r\nCome on now, follow my lead\r\nI may be crazy, don't mind me\r\nSay, boy, let's not talk too much\r\nGrab on my waist and put that body on me\r\nCome on now, follow my lead\r\nCome, come on now, follow my lead\r\n\r\n[Chorus]\r\nI'm in love with the shape of you\r\nWe push and pull like a magnet do\r\nAlthough my heart is falling too\r\nI'm in love with your body\r\nAnd last night you were in my room\r\nAnd now my bedsheets smell like you\r\nEvery day discovering something brand new\r\nI'm in love with your body\r\nOh\u2014i\u2014oh\u2014i\u2014oh\u2014i\u2014oh\u2014i\r\nI'm in love with your body\r\nOh\u2014i\u2014oh\u2014i\u2014oh\u2014i\u2014oh\u2014i\r\nI'm in love with your body\r\nOh\u2014i\u2014oh\u2014i\u2014oh\u2014i\u2014oh\u2014i\r\nI'm in love with your body\r\nEvery day discovering something brand new\r\nI'm in love with the shape of you\r\n\r\n[Verse 2]\r\nOne week in we let the story begin\r\nWe're going out on our first date\r\nYou and me are thrifty\r\nSo go all you can eat\r\nFill up your bag and I fill up a plate\r\nWe talk for hours and hours about the sweet and the sour\r\nAnd how your family is doing okay\r\nLeave and get in a taxi, then kiss in the backseat\r\nTell the driver make the radio play\r\nAnd I'm singing like\r\n\r\n[Pre-Chorus]\r\nGirl, you know I want your love\r\nYour love was handmade for somebody like me\r\nimage: http://static.urx.io/units/web/urx-unit-loader.gif\r\n\r\n\r\nCome on now, follow my lead\r\nI may be crazy, don't mind me\r\nSay, boy, let's not talk too much\r\nGrab on my waist and put that body on me\r\nCome on now, follow my lead\r\nCome, come on now, follow my lead\r\n\r\n[Chorus]\r\nI'm in love with the shape of you\r\nWe push and pull like a magnet do\r\nAlthough my heart is falling too\r\nI'm in love with your body\r\nAnd last night you were in my room\r\nAnd now my bedsheets smell like you\r\nEvery day discovering something brand new\r\nI'm in love with your body\r\nOh\u2014i\u2014oh\u2014i\u2014oh\u2014i\u2014oh\u2014i\r\nI'm in love with your body\r\nOh\u2014i\u2014oh\u2014i\u2014oh\u2014i\u2014oh\u2014i\r\nI'm in love with your body\r\nOh\u2014i\u2014oh\u2014i\u2014oh\u2014i\u2014oh\u2014i\r\nI'm in love with your body\r\nEvery day discovering something brand new\r\nI'm in love with the shape of you\r\n\r\n[Bridge]\r\nCome on, be my baby, come on\r\nCome on, be my baby, come on\r\nCome on, be my baby, come on\r\nCome on, be my baby, come on\r\nCome on, be my baby, come on\r\nCome on, be my baby, come on\r\nCome on, be my baby, come on\r\nCome on, be my baby, come on\r\n\r\n[Chorus]\r\nI'm in love with the shape of you\r\nWe push and pull like a magnet do\r\nAlthough my heart is falling too\r\nI'm in love with your body\r\nLast night you were in my room\r\nAnd now my bedsheets smell like you\r\nEvery day discovering something brand new\r\nI'm in love with your body\r\nCome on, be my baby, come on\r\nCome on, be my baby, come on\r\nI'm in love with your body\r\nCome on, be my baby, come on\r\nCome on, be my baby, come on\r\nI'm in love with your body\r\nCome on, be my baby, come on\r\nCome on, be my baby, come on\r\nI'm in love with your body\r\nEvery day discovering something brand new\r\nI'm in love with the shape of you"
    }
},
{
    "model": "songs.song",
    "pk": 18,
    "fields": {
        "title": "Castle on the Hill",
        "artist": 1,
        "album": "Divide",
        "producer": "Ed Sheeran & Benny Blanco",
        "lyrics": "[Verse 1]\r\nWhen I was six years old I broke my leg\r\nI was running from my brother and his friends\r\nAnd tasted the sweet perfume of the mountain grass I rolled down\r\nI was younger then, take me back to when I\r\n\r\n[Pre-Chorus 1]\r\nFound my heart and broke it here\r\nMade friends and lost them through the years\r\nAnd I've not seen the roaring fields in so long, I know I've grown\r\nBut I can't wait to go home\r\n\r\n[Chorus]\r\nI'm on my way\r\nDriving at 90 down those country lanes\r\nSinging to \"Tiny Dancer\"\r\nAnd I miss the way you make me feel, and it's real\r\nWe watched the sunset over the castle on the hill\r\n\r\n[Verse 2]\r\nFifteen years old and smoking hand-rolled cigarettes\r\nRunning from the law through the backfields and getting drunk with my friends\r\nHad my first kiss on a Friday night, I don't reckon that I did it right\r\nBut I was younger then, take me back to when\r\n\r\n[Pre-Chorus 2]\r\nWe found weekend jobs, when we got paid\r\nWe'd buy cheap spirits and drink them straight\r\nMe and my friends have not thrown up in so long, oh how we've grown\r\nimage: http://static.urx.io/units/web/urx-unit-loader.gif\r\n\r\n\r\nBut I can't wait to go home\r\n\r\n[Chorus]\r\nI'm on my way\r\nDriving at 90 down those country lanes\r\nSinging to \"Tiny Dancer\"\r\nAnd I miss the way you make me feel, and it's real\r\nWe watched the sunset over the castle on the hill\r\nOver the castle on the hill\r\nOver the castle on the hill\r\n\r\n[Bridge]\r\nOne friend left to sell clothes\r\nOne works down by the coast\r\nOne had two kids but lives alone\r\nOne's brother overdosed\r\nOne's already on his second wife\r\nOne's just barely getting by\r\nBut these people raised me\r\nAnd I can't wait to go home\r\n\r\n[Chorus]\r\nAnd I'm on my way, I still remember\r\nThose old country lanes\r\nWhen we did not know the answers\r\nAnd I miss the way you make me feel, it's real\r\nWe watched the sunset over the castle on the hill\r\nOver the castle on the hill\r\nOver the castle on the hill"
    }
},
{
    "model": "songs.song",
    "pk": 19,
    "fields": {
        "title": "Blank Space",
        "artist": 2,
        "album": "1989",
        "producer": "",
        "lyrics": "Nice to meet you, where you been?\r\nI could show you incredible things\r\nMagic, madness, heaven, sin\r\nSaw you there and I thought\r\n\"Oh, my God, look at that face!\"\r\nYou look like my next mistake\r\nLove's a game, wanna play?\r\n\r\nNew money, suit and tie\r\nI can read you like a magazine\r\nAin't it funny? Rumors fly\r\nAnd I know you heard about me\r\nSo hey, let's be friends\r\nI'm dying to see how this one ends\r\nGrab your passport and my hand\r\nI can make the bad guys good for a weekend\r\n\r\nSo it's gonna be forever\r\nOr it's gonna go down in flames\r\nYou can tell me when it's over\r\nIf the high was worth the pain\r\nGot a long list of ex-lovers\r\nThey'll tell you I'm insane\r\n'Cause you know I love the players\r\nAnd you love the game\r\n\r\n'Cause we're young and we're reckless\r\nWe'll take this way too far\r\nIt'll leave you breathless\r\nOr with a nasty scar\r\nGot a long list of ex-lovers\r\nThey'll tell you I'm insane\r\nBut I've got a blank space, baby\r\nAnd I'll write your name\r\n\r\nCherry lips, crystal skies\r\nI could show you incredible things\r\nStolen kisses, pretty lies\r\nYou're the King, baby, I'm your Queen\r\nFind out what you want\r\nBe that girl for a month\r\nWait, the worst is yet to come, oh no\r\n\r\nScreaming, crying, perfect storms\r\nI can make all the tables turn\r\nRose garden filled with thorns\r\nKeep you second guessing like\r\n\"Oh, my God, who is she?\"\r\nimage: http://static.urx.io/units/web/urx-unit-loader.gif\r\n\r\n\r\nI get drunk on jealousy\r\nBut you'll come back each time you leave\r\n'Cause, darling, I'm a nightmare dressed like a daydream\r\n\r\nSo it's gonna be forever\r\nOr it's gonna go down in flames\r\nYou can tell me when it's over\r\nIf the high was worth the pain\r\nGot a long list of ex-lovers\r\nThey'll tell you I'm insane\r\n'Cause you know I love the players\r\nAnd you love the game\r\n\r\n'Cause we're young and we're reckless\r\nWe'll take this way too far\r\nIt'll leave you breathless\r\nOr with a nasty scar\r\nGot a long list of ex-lovers\r\nThey'll tell you I'm insane\r\nBut I've got a blank space, baby\r\nAnd I'll write your name\r\n\r\nBoys only want love if it's torture\r\nDon't say I didn't say, I didn't warn ya\r\nBoys only want love if it's torture\r\nDon't say I didn't say, I didn't warn ya\r\n\r\nSo it's gonna be forever\r\nOr it's gonna go down in flames\r\nYou can tell me when it's over\r\nIf the high was worth the pain\r\nGot a long list of ex-lovers\r\nThey'll tell you I'm insane\r\n'Cause you know I love the players\r\nAnd you love the game\r\n\r\n'Cause we're young and we're reckless\r\nWe'll take this way too far\r\nIt'll leave you breathless\r\nOr with a nasty scar\r\nGot a long list of ex-lovers\r\nThey'll tell you I'm insane\r\nBut I've got a blank space, baby\r\nAnd I'll write your name"
    }
}
]
[
{
    "model": "songs.artist",
    "pk": 1,
    "fields": {
        "name": "Ed Sheeran",
        "birth_name": "Edward Christopher Sheeran",
        "birth_date": "1991-02-17",
        "age": 25
    }
},
{
    "model": "songs.artist",
    "pk": 2,
    "fields": {
        "name": "Taylor Swift",
        "birth_name": "Taylor Alison Swift",
        "birth_date": "1989-12-13",
        "age": 27
    }
},
{
    "model": "songs.artist",
    "pk": 3,
    "fields": {
        "name": "Adele",
        "birth_name": "Adele Laurie Blue Adkins",
        "birth_date": "1988-05-25",
        "age": 28
    }
},
{
    "model": "songs.artist",
    "pk": 4,
    "fields": {
        "name": "Katy Perry",
        "birth_name": "Katheryn Elizabeth Hudson",
        "birth_date": "1984-10-25",
        "age": 32
    }
},
{
    "model": "songs.artist",
    "pk": 5,
    "fields": {
        "name": "Lady Gaga",
        "birth_name": "Stefani Joanne Angelina Germanotta",
        "birth_date": "1986-03-28",
        "age": 30
    }
},
{
    "model": "songs.artist",
    "pk": 6,
    "fields": {
        "name": "Bruno Mars",
        "birth_name": "Peter Gene Hernandez",
        "birth_date": "1985-10-08",
        "age": 31
    }
},
{
    "model": "songs.artist",
    "pk": 7,
    "fields": {
        "name": "The Weeknd",
        "birth_name": "Abel Makkonen Tesfaye",
        "birth_date": "1990-02-16",
        "age": 26
    }
},
{
    "model": "songs.artist",
    "pk": 8,
    "fields": {
        "name": "Ariana Grande",
        "birth_name": "Ariana Grande-Butera",
        "birth_date": "1993-06-26",
        "age": 23
    }
},
{
    "model": "songs.artist",
    "pk": 9,
    "fields": {
        "name": "Rihanna",
        "birth_name": "Robyn Rihanna Fenty",
        "birth_date": "1988-02-20",
        "age": 28
    }
}
]
